<?xml version="1.0" encoding="UTF-8" standalone="no"?>
<!DOCTYPE svg PUBLIC "-//W3C//DTD SVG 1.1//EN" "http://www.w3.org/Graphics/SVG/1.1/DTD/svg11.dtd">
<svg width="100%" height="100%" viewBox="0 0 48 48" version="1.1" xmlns="http://www.w3.org/2000/svg" xmlns:xlink="http://www.w3.org/1999/xlink" xml:space="preserve" xmlns:serif="http://www.serif.com/" style="fill-rule:evenodd;clip-rule:evenodd;stroke-linejoin:round;stroke-miterlimit:2;">
    <g transform="matrix(0.107626,0,0,0.107626,-4.66815,-2.74961)">
        <path d="M266.368,25.548C389.442,25.548 489.363,125.468 489.363,248.542C489.363,371.616 389.442,471.537 266.368,471.537C143.294,471.537 43.374,371.616 43.374,248.542C43.374,125.468 143.294,25.548 266.368,25.548ZM266.368,51.471C375.135,51.471 463.44,139.776 463.44,248.542C463.44,357.309 375.135,445.614 266.368,445.614C157.602,445.614 69.297,357.309 69.297,248.542C69.297,139.776 157.602,51.471 266.368,51.471Z"/>
    </g>
    <g>
        <g transform="matrix(0.111541,0.111541,-0.109131,0.109131,12.799,-18.6934)">
            <path d="M325.742,143.949C325.742,137.305 320.464,131.911 313.964,131.911L169.093,131.911C162.593,131.911 157.316,137.305 157.316,143.949C157.316,150.593 162.593,155.986 169.093,155.986L313.964,155.986C320.464,155.986 325.742,150.593 325.742,143.949Z"/>
        </g>
        <g transform="matrix(0.111541,-0.111541,0.109131,0.109131,-18.6196,35.1873)">
            <path d="M325.742,143.949C325.742,137.305 320.464,131.911 313.964,131.911L169.093,131.911C162.593,131.911 157.316,137.305 157.316,143.949C157.316,150.593 162.593,155.986 169.093,155.986L313.964,155.986C320.464,155.986 325.742,150.593 325.742,143.949Z"/>
        </g>
    </g>
</svg>
